Learning the Tidyverse2 | Environmental Dynamics Workbook
…
Use pipes and mutate() to reformat the date

The pipe (%>%) operator takes the output from one function and makes it the input of the next

Pipes can be used across the tidyverse when working with tidy data

mutate() is used to add or remove variables when working with pipes

This is the same as envFlow$date <- ymd(envFlow$date) but it’s ‘pipeable’!

envFlow %>% 
  mutate(date = ymd(date)) 

## # A tibble: 6,940 × 2
##    date       totalDischarge
##    <date>              <dbl>
##  1 1992-01-01           26.6
##  2 1992-01-02           26.8
##  3 1992-01-03           27.3
##  4 1992-01-04           27.0
##  5 1992-01-05           26.5
##  6 1992-01-06           26.8
##  7 1992-01-07           27.1
##  8 1992-01-08           26.8
##  9 1992-01-09           26.7
## 10 1992-01-10           26.0
## # … with 6,930 more rows
## # ℹ Use `print(n = ...)` to see more rows

Extract the years

year() returns the numerical year from date formatted data

envFlow %>% 
  mutate(date = ymd(date)) %>% 
  mutate(year = year(date))

## # A tibble: 6,940 × 3
##    date       totalDischarge  year
##    <date>              <dbl> <dbl>
##  1 1992-01-01           26.6  1992
##  2 1992-01-02           26.8  1992
##  3 1992-01-03           27.3  1992
##  4 1992-01-04           27.0  1992
##  5 1992-01-05           26.5  1992
##  6 1992-01-06           26.8  1992
##  7 1992-01-07           27.1  1992
##  8 1992-01-08           26.8  1992
##  9 1992-01-09           26.7  1992
## 10 1992-01-10           26.0  1992
## # … with 6,930 more rows
## # ℹ Use `print(n = ...)` to see more rows
…
